material : "eut2.dif.spec.weight.weight.dif.spec.weight.rfx" {
	texture[0] : "/material/terrain/dirt_3_512.tobj"
	texture_name[0] : "texture_base"
	texture[1] : "/material/terrain/grass_city_512_sfr.tobj"
	texture_name[1] : "texture_over"
	add_ambient : 0
	aux[3] : { 0.1 , 0.1 , 0.1 , 8 }
	diffuse : { 1 , 1 , 1 }
	reflection : 0
	reflection2 : 0
	shininess : 12
	specular : { 0.0331048 , 0.0331048 , 0.0331048 }
	substance : "grass"
}
