material : "eut2.dif.spec.rfx" {
	texture[0] : "/model/hays/roll_hay.tobj"
	texture_name[0] : "texture_base"
	add_ambient : 0
	diffuse : { 1 , 1 , 1 }
	reflection : 0
	shininess : 12
	specular : { 0.00255882 , 0.00255882 , 0.00255882 }
}
