material : "eut2.dif.spec.add.env.nofresnel.decal.rfx" {
	texture[0] : "/vehicle/trailer_eu/gooseneck/fb_cistern_06.tobj"
	texture_name[0] : "texture_base"
	texture[1] : "/material/environment/vehicle_reflection.tobj"
	texture_name[1] : "texture_reflection"
	add_ambient : 0
	diffuse : { 0.0508761 , 0.0508761 , 0.0508761 }
	env_factor : { 0.214041 , 0.214041 , 0.214041 }
	reflection : 0
	shininess : 10
	specular : { 1 , 1 , 1 }
}
