material : "eut2.dif.rfx" {
	texture[0] : "/material/prefab/concrete.tobj"
	texture_name[0] : "texture_base"
	add_ambient : 0
	diffuse : { 0.0893036 , 0.0893036 , 0.0893036 }
	reflection : 0
	shininess : 100
	specular : { 0 , 0 , 0 }
}
