material : "eut2.dif.spec.rfx" {
	texture[0] : "/vehicle/trailer_eu/flat_bed/overcargo_wheel.tobj"
	texture_name[0] : "texture_base"
	add_ambient : 0
	diffuse : { 1 , 1 , 1 }
	reflection : 0
	shininess : 40
	specular : { 0.312788 , 0.312788 , 0.312788 }
}
