material : "eut2.dif.over.rfx" {
	texture[0] : "/model/panorama/carlisle/carlisle_texture.tobj"
	texture_name[0] : "texture_base"
	add_ambient : 0
	diffuse : { 1 , 1 , 1 }
	reflection : 0
	shininess : 4
	specular : { 0.130567 , 0.130567 , 0.130567 }
}
