material : "eut2.dif.spec.mult.dif.spec.add.env.rfx" {
	texture[0] : "/vehicle/ai/mondeo_2009/color.tobj"
	texture_name[0] : "texture_base"
	texture[1] : "/vehicle/ai/mondeo_2009/look_dk.tobj"
	texture_name[1] : "texture_mult"
	texture[2] : "/material/environment/vehicle_reflection.tobj"
	texture_name[2] : "texture_reflection"
	add_ambient : 0
	diffuse : { 0.996123 , 0.996123 , 0.996123 }
	env_factor : { 0.219051 , 0.219051 , 0.219051 }
	fresnel : { 0.2 , 0.9 }
	reflection : 0
	shininess : 250
	specular : { 0.561007 , 0.561007 , 0.561007 }
}
