material : "eut2.dif.spec.a.rfx" {
	texture[0] : "/material/tiled/wires_01.tobj"
	texture_name[0] : "texture_base"
	add_ambient : 0
	diffuse : { 0.999999 , 0.999999 , 0.999999 }
	reflection : 0
	shininess : 4
	specular : { 0.0803872 , 0.0803872 , 0.0803872 }
}
