material : "eut2.dif.spec.rfx" {
	texture[0] : "/model2/vehicle/cars_parked/cars_parked_01.tobj"
	texture_name[0] : "texture_base"
	add_ambient : 0
	diffuse : { 1 , 1 , 1 }
	reflection : 0
	shininess : 500
	specular : { 1 , 1 , 1 }
}
