material : "eut2.dif.spec.decal.over.rfx" {
	texture[0] : "/vehicle/truck/scania_rcab_2009/shadow_4x2.tobj"
	texture_name[0] : "texture_base"
	add_ambient : 0
	diffuse : { 1 , 1 , 1 }
	reflection : 0
	shininess : 4
	specular : { 0 , 0 , 0 }
}
