material : "eut2.showroom_v2.rfx" {
	texture[0] : "/model/ui/waves.tobj"
	texture_name[0] : "texture_base"
	texture[1] : "/model/ui/bcg_colors.tobj"
	texture_name[1] : "texture_mask"
	aux[0] : 0.001
	aux[4] : { -0.05 , 0.06 , -0.075 }
}
