material : "eut2.dif.spec.weight"
{
	texture : "ter_trans_placeholder.tobj"
	texture_name : "texture_base"
	substance : "road_snow"

	specular : { 1.6, 1.6, 1.6 }
	shininess : 15

	reflection: 1.0
}


