material : "eut2.dif.spec.a.decal.over.rfx" {
	texture[0] : "/vehicle/truck/upgrade/badges/scania_streamline/badges_2.tobj"
	texture_name[0] : "texture_base"
	add_ambient : 0
	diffuse : { 1 , 1 , 1 }
	reflection : 0
	shininess : 50
	specular : { 0.0893036 , 0.0893036 , 0.0893036 }
	queue_bias : 1
}
