material : "eut2.dif.spec.rfx" {
	texture[0] : "/vehicle/truck/upgrade/doorstep/renault_magnum_2009/doorstep_05.tobj"
	texture_name[0] : "texture_base"
	add_ambient : 0
	diffuse : { 1 , 1 , 1 }
	reflection : 0
	shininess : 50
	specular : { 0.16109 , 0.16109 , 0.16109 }
}
