material : "eut2.leaves.shadow.rfx" {
	texture[0] : "/model2/vegetation/tree_fr/shrubs_fr.tobj"
	texture_name[0] : "texture_base"
	texture[1] : "/model2/vegetation/tree_fr/shrubs_mask_fr.tobj"
	texture_name[1] : "texture_mask"
	add_ambient : 0
	aux[0] : 1
	aux[1] : { 1 , 0 , 0 }
	diffuse : { 1 , 1 , 1 }
	shininess : 20
	specular : { 0.214041 , 0.214041 , 0.214041 }
	queue_bias : 2
}
