material : "eut2.building.day.rfx" {
	texture[0] : "/prefab/gas/gas_station.tobj"
	texture_name[0] : "texture_base"
	add_ambient : 0
	aux[5] : 0
	diffuse : { 1 , 1 , 1 }
	shininess : 12
	specular : { 0.0174963 , 0.0174963 , 0.0174963 }
}
