material : "eut2.dif.spec.a.rfx" {
	texture[0] : "/prefab/port/port4.tobj"
	texture_name[0] : "texture_base"
	add_ambient : 0
	diffuse : { 1 , 1 , 1 }
	reflection : 0
	shininess : 35
	specular : { 0.0331048 , 0.0331048 , 0.0331048 }
}
