material : "eut2.dif.weight.dif.tg0.rfx" {
	texture[0] : "/material/terrain/grass_ger_main.tobj"
	texture_name[0] : "texture_base"
	texture[1] : "/material/road/asphalt.tobj"
	texture_name[1] : "texture_over"
	add_ambient : 0
	aux[0] : { 28 , 28 }
	diffuse : { 1 , 1 , 1 }
	reflection : 0
	reflection2 : 0
	shininess : 4
	specular : { 0 , 0 , 0 }
}
