material : "eut2.dif.spec.add.env.indenv.rfx" {
	texture[0] : "/vehicle/truck/daf_xf_euro6/interior/greyplastic_rough.tobj"
	texture_name[0] : "texture_base"
	texture[1] : "/material/environment/generic_reflection.tobj"
	texture_name[1] : "texture_reflection"
	add_ambient : 0
	diffuse : { 0.321064 , 0.321064 , 0.321064 }
	env_factor : { 1 , 1 , 1 }
	fresnel : { -1 , 1.5 }
	reflection : 0
	shininess : 30
	specular : { 0.0792354 , 0.0792354 , 0.0792354 }
}
