material : "eut2.dif.spec.rfx" {
	texture[0] : "/model/sign/traffic/uk_m80_hw.tobj"
	texture_name[0] : "texture_base"
	add_ambient : 0
	diffuse : { 1 , 1 , 1 }
	reflection : 0
	shininess : 25
	specular : { 0.96283 , 0.96283 , 0.96283 }
}
