material : "eut2.glass.rfx" {
	texture[0] : "/vehicle/truck/share/glass.tobj"
	texture_name[0] : "texture_base"
	texture[1] : "/vehicle/truck/daf_xf/interior/env.tobj"
	texture_name[1] : "texture_reflection"
	add_ambient : 0
	diffuse : { 1 , 1 , 1 }
	env_factor : { 1 , 1 , 1 }
	fresnel : { 0.2 , 0.9 }
	shininess : 24
	specular : { 0.132868 , 0.132868 , 0.132868 }
	tint : { 0.848088 , 0.848088 , 0.848088 }
	tint_opacity : 0
}
