material : "eut2.dif.spec.rfx" {
	texture[0] : "/vehicle/ai/talisman/color.tobj"
	texture_name[0] : "texture_base"
	add_ambient : 0
	diffuse : { 0.991201 , 0.991201 , 0.991201 }
	reflection : 0
	shininess : 40
	specular : { 0.999988 , 0.999988 , 0.999988 }
}
