material : "eut2.dif.spec.rfx" {
	texture[0] : "/vehicle/ai/jaguar_xf/color.tobj"
	texture_name[0] : "texture_base"
	add_ambient : 1
	diffuse : { 1 , 1 , 1 }
	reflection : 0
	shininess : 15
	specular : { 0.073239 , 0.073239 , 0.073239 }
}
