material : "eut2.dif.spec.mult.dif.spec.rfx" {
	texture[0] : "/material/road/asphalt.tobj"
	texture_name[0] : "texture_base"
	texture[1] : "/prefab/bridge/sikorskiego_ao.tobj"
	texture_name[1] : "texture_mult"
	add_ambient : 0
	diffuse : { 1 , 1 , 1 }
	reflection : 1
	shininess : 15
	specular : { 1.6 , 1.6 , 1.6 }
}
