material : "eut2.dif.spec.a.rfx" {
	texture[0] : "/prefab/tradeaux_warehouse/tradeaux.tobj"
	texture_name[0] : "texture_base"
	add_ambient : 0
	diffuse : { 1 , 1 , 1 }
	reflection : 0
	shininess : 30
	specular : { 0.210229 , 0.210229 , 0.210229 }
}
