material : "eut2.dif.spec.add.env.rfx" {
	texture[0] : "/material/tiled/metal_plates_gs_01.tobj"
	texture_name[0] : "texture_base"
	texture[1] : "/material/environment/building_reflection/building_ref.tobj"
	texture_name[1] : "texture_reflection"
	add_ambient : 0
	diffuse : { 0.975713 , 0.975713 , 0.975713 }
	env_factor : { 1 , 1 , 1 }
	fresnel : { 0.8 , 0.2 }
	reflection : 0
	shininess : 85
	specular : { 1 , 1 , 1 }
}
