material : "eut2.dif.spec.add.env.rfx" {
	texture[0] : "/vehicle/truck/daf_xf_euro6/interior/greyplastic_rough.tobj"
	texture_name[0] : "texture_base"
	texture[1] : "/material/environment/interior_reflection.tobj"
	texture_name[1] : "texture_reflection"
	add_ambient : 0
	diffuse : { 1 , 0.83071 , 0.686578 }
	env_factor : { 1 , 0.770273 , 0.583687 }
	fresnel : { -1.5 , 2 }
	reflection : 0
	shininess : 10
	specular : { 0.0685363 , 0.0685363 , 0.0685363 }
}
