material : "eut2.dif.spec.over.rfx" {
	texture[0] : "/vehicle/trailer_eu/food_cistern/shadow.tobj"
	texture_name[0] : "texture_base"
	add_ambient : 0
	diffuse : { 0 , 0 , 0 }
	reflection : 0
	shininess : 0
	specular : { 0 , 0 , 0 }
}
