material : "eut2.dif.spec.mult.dif.spec.add.env.rfx" {
	texture[0] : "/vehicle/ai/vw_touran/color.tobj"
	texture_name[0] : "texture_base"
	texture[1] : "/vehicle/ai/vw_touran/paintjob_police.tobj"
	texture_name[1] : "texture_mult"
	texture[2] : "/material/environment/vehicle_reflection.tobj"
	texture_name[2] : "texture_reflection"
	add_ambient : 0
	diffuse : { 1 , 1 , 1 }
	env_factor : { 0.184475 , 0.184475 , 0.184475 }
	fresnel : { 0.2 , 0.9 }
	reflection : 0
	shininess : 240
	specular : { 0.526238 , 0.526238 , 0.526238 }
}
