material : "eut2.building.day.rfx" {
	texture[0] : "/model/railing/tunnel/city_tunel2.tobj"
	texture_name[0] : "texture_base"
	add_ambient : 0
	diffuse : { 0.214041 , 0.214041 , 0.214041 }
	shininess : 35
	specular : { 1 , 1 , 1 }
}
