material : "eut2.dif.spec.add.env.rfx" {
	texture[0] : "/vehicle/truck/daf_xf_euro6/interior/alum.tobj"
	texture_name[0] : "texture_base"
	texture[1] : "/material/environment/generic_reflection.tobj"
	texture_name[1] : "texture_reflection"
	add_ambient : 0
	diffuse : { 1 , 1 , 1 }
	env_factor : { 0.269583 , 0.269583 , 0.269583 }
	fresnel : { 0.1 , 1 }
	reflection : 0
	shininess : 15
	specular : { 0.841902 , 0.940187 , 1 }
}
