material : "eut2.building.add.env.day.rfx" {
	texture[0] : "/model/panorama/carlisle/carlisle_texture.tobj"
	texture_name[0] : "texture_base"
	texture[1] : "/material/environment/building_reflection/building_ref.tobj"
	texture_name[1] : "texture_reflection"
	add_ambient : 0
	diffuse : { 1 , 1 , 1 }
	env_factor : { 0.740829 , 0.740829 , 0.740829 }
	shininess : 90
	specular : { 0.725116 , 0.725116 , 0.725116 }
}
