material : "eut2.truckpaint.rfx" {
	texture[0] : "/vehicle/trailer_eu/fuel_cistern/plain.tobj"
	texture_name[0] : "texture_base"
	texture[1] : "/material/environment/vehicle_reflection.tobj"
	texture_name[1] : "texture_reflection"
	add_ambient : 0
	diffuse : { 1 , 1 , 1 }
	env_factor : { 0.0100228 , 0.0100228 , 0.0100228 }
	fresnel : { 0.2 , 0.9 }
	shininess : 30
	specular : { 0.890899 , 0.890899 , 0.890899 }
}
