material : "eut2.dif.spec.mult.dif.spec.rfx" {
	texture[0] : "/prefab/amsterdam_port/amsterdam_port_concrete.tobj"
	texture_name[0] : "texture_base"
	texture[1] : "/prefab/amsterdam_port/shadowmap.tobj"
	texture_name[1] : "texture_mult"
	add_ambient : 0
	diffuse : { 1 , 1 , 1 }
	reflection : 0
	shininess : 20
	specular : { 0.124897 , 0.124897 , 0.124897 }
}
