material : "eut2.truckpaint.tsnmapuv16.airbrush.flipflake.altuv.rfx" {
	texture[0] : "/vehicle/truck/daf_xf_euro6/carpaint_ao.tobj"
	texture_name[0] : "texture_base"
	texture[1] : "/material/custom/flake_noise.tobj"
	texture_name[1] : "texture_flakenoise"
	texture[2] : "/vehicle/truck/daf_xf_euro6/carpaint_n.tobj"
	texture_name[2] : "texture_nmap"
	texture[3] : "/vehicle/truck/upgrade/paintjob/empty.tobj"
	texture_name[3] : "texture_paintjob"
	texture[4] : "/material/environment/vehicle_reflection.tobj"
	texture_name[4] : "texture_reflection"
	add_ambient : 0
	aux[5] : { 35 , 30 , 2.4 , 0 }
	aux[6] : { 1 , 1 , 1 , 0.7 }
	aux[7] : { 0.86 , 0.392819 , 0.20812 , 1.3 }
	aux[8] : { 1 , 0.536 , 0.275 }
	diffuse : { 1 , 1 , 1 }
	env_factor : { 0.073239 , 0.073239 , 0.073239 }
	fresnel : { 0.2 , 0.9 }
	shininess : 250
	specular : { 1.5 , 1.5 , 1.5 }
}
