material : "eut2.dif.spec.weight.weight.dif.spec.weight.tg0.rfx" {
	texture[0] : "/material/road/dark_c2.tobj"
	texture_name[0] : "texture_base"
	texture[1] : "/material/terrain/grass_sporadic_512.tobj"
	texture_name[1] : "texture_over"
	add_ambient : 0
	aux[0] : { 6 , 6 }
	aux[3] : { 0.1 , 0.1 , 0.1 , 12 }
	diffuse : { 1 , 1 , 1 }
	reflection : 1
	reflection2 : 0
	shininess : 8
	specular : { 1 , 1 , 1 }
	substance : "grass"
}
