material : "eut2.dif.spec.add.env.rfx" {
	texture[0] : "/vehicle/ai/xc90/color.tobj"
	texture_name[0] : "texture_base"
	texture[1] : "/material/environment/vehicle_reflection.tobj"
	texture_name[1] : "texture_reflection"
	add_ambient : 0
	diffuse : { 0.188243 , 0.188243 , 0.188243 }
	env_factor : { 1 , 1 , 1 }
	fresnel : { 0 , 0 }
	reflection : 0
	shininess : 4
	specular : { 0.114019 , 0.114019 , 0.114019 }
}
