material : "eut2.dif.spec.shadow.rfx" {
	texture[0] : "/model/sign/reflective_post_hu.tobj"
	texture_name[0] : "texture_base"
	add_ambient : 0
	diffuse : { 1 , 1 , 1 }
	reflection : 0
	shadow_bias : 0
	shininess : 60
	specular : { 2 , 2 , 2 }
}
