material : "eut2.glass.rfx" {
	texture[0] : "/vehicle/truck/share/glass_ex.tobj"
	texture_name[0] : "texture_base"
	texture[1] : "/material/environment/vehicle_reflection.tobj"
	texture_name[1] : "texture_reflection"
	add_ambient : 0
	diffuse : { 1 , 1 , 1 }
	env_factor : { 1 , 1 , 1 }
	fresnel : { 0.2 , 0.9 }
	shininess : 150
	specular : { 1 , 1 , 1 }
	tint : { 1 , 1 , 1 }
	tint_opacity : 0.01
}
