material : "eut2.leaves.shadow.rfx" {
	texture[0] : "/model/vegetation/grass/sc_grass.tobj"
	texture_name[0] : "texture_base"
	texture[1] : "/model/vegetation/grass/sc_grass_new_mask.tobj"
	texture_name[1] : "texture_mask"
	add_ambient : 0
	aux[0] : { 0 , 0 }
	aux[1] : { 1 , 0 , 0 }
	diffuse : { 1 , 1 , 1 }
	shininess : 0
	specular : { 0 , 0 , 0 }
	queue_bias : 3
}
