material : "eut2.dif.spec.a.decal.attr.rfx" {
	texture[0] : "/prefab2/sawmill_sc/sawmill_sc.tobj"
	texture_name[0] : "texture_base"
	add_ambient : 0
	diffuse : { 0.416509 , 0.416509 , 0.416509 }
	reflection : 0
	shininess : 4
	specular : { 0 , 0 , 0 }
	queue_bias : 1
}
