material : "eut2.dif.spec.over.rfx" {
	texture[0] : "/model/ship/yachts_diff.tobj"
	texture_name[0] : "texture_base"
	add_ambient : 0
	diffuse : { 1 , 1 , 1 }
	reflection : 0
	shininess : 100
	specular : { 1 , 1 , 1 }
}
