material : "eut2.building.lvcol.day.rfx" {
	texture[0] : "/model2/sign/company_logos/sag_and_tre/sag_and_tre_sc.tobj"
	texture_name[0] : "texture_base"
	add_ambient : 0
	aux[5] : 0
	diffuse : { 1 , 1 , 1 }
	shininess : 4
	specular : { 0 , 0 , 0 }
}
