material : "eut2.dif.spec.rfx" {
	texture[0] : "/vehicle/trailer_eu/krone/cool_liner/cool_liner.tobj"
	texture_name[0] : "texture_base"
	add_ambient : 0
	diffuse : { 1 , 1 , 1 }
	reflection : 0
	shininess : 15
	specular : { 0.0604507 , 0.0604507 , 0.0604507 }
}
