material : "eut2.building.day.rfx" {
	texture[0] : "/prefab/truck_dealer/truck_dealer_02.tobj"
	texture_name[0] : "texture_base"
	add_ambient : 0
	aux[5] : 0
	diffuse : { 1 , 1 , 1 }
	shininess : 4
	specular : { 0 , 0 , 0 }
}
