material : "eut2.dif.shadow.a.rfx" {
	texture[0] : "/model/railing/bridge/lochkov_cholupice_2lines_1way.tobj"
	texture_name[0] : "texture_base"
	add_ambient : 0
	diffuse : { 1 , 1 , 1 }
	reflection : 0
	shadow_bias : 0
	shininess : 4
	specular : { 0 , 0 , 0 }
}
