material : "eut2.sign.rfx" {
	texture[0] : "/model/sign/navigation/cz/highway_cz.tobj"
	texture_name[0] : "texture_base"
	add_ambient : 0
	diffuse : { 1 , 1 , 1 }
	shininess : 4
	specular : { 0 , 0 , 0 }
}
