material : "eut2.dif.spec.shadow.a.rfx" {
	texture[0] : "/model/power_line/railway_powerlines.tobj"
	texture_name[0] : "texture_base"
	add_ambient : 0
	diffuse : { 1 , 1 , 1 }
	reflection : 0
	shadow_bias : 0
	shininess : 30
	specular : { 0.318547 , 0.318547 , 0.318547 }
}
