material : "eut2.building.add.env.day.rfx" {
	texture[0] : "/prefab/truck_dealer/truck_dealer_02.tobj"
	texture_name[0] : "texture_base"
	texture[1] : "/material/environment/building_reflection/building_ref.tobj"
	texture_name[1] : "texture_reflection"
	add_ambient : 0
	aux[5] : 0
	diffuse : { 1 , 1 , 1 }
	env_factor : { 0.446566 , 0.446566 , 0.446566 }
	fresnel : { 0.2 , 0.89999 }
	shininess : 60
	specular : { 0.785435 , 0.785435 , 0.785435 }
}
