material : "eut2.dif.spec.tsnmap.rfx" {
	texture[0] : "/vehicle/truck/daf_xf_euro6/interior/plush.tobj"
	texture_name[0] : "texture_base"
	texture[1] : "/vehicle/truck/daf_xf_euro6/interior/leather_black_n.tobj"
	texture_name[1] : "texture_nmap"
	add_ambient : 0
	diffuse : { 0.296765 , 0.296765 , 0.296765 }
	reflection : 0
	shininess : 30
	specular : { 0.107717 , 0.107717 , 0.107717 }
}
