material : "eut2.dif.spec.rfx" {
	texture[0] : "/prefab/level_crossing/level_cross_be.tobj"
	texture_name[0] : "texture_base"
	add_ambient : 0
	diffuse : { 1 , 1 , 1 }
	reflection : 0
	shininess : 25
	specular : { 0.0100228 , 0.0100228 , 0.0100228 }
}
