material : "eut2.dif.spec.rfx" {
	texture[0] : "/vehicle/truck/upgrade/ext_interior/daf_xf_euro6/standart_line.tobj"
	texture_name[0] : "texture_base"
	add_ambient : 0
	diffuse : { 1 , 1 , 1 }
	reflection : 0
	shininess : 4
	specular : { 0 , 0 , 0 }
}
