material : "eut2.dif.a.rfx" {
	texture[0] : "/model/bridge/2_railway_bridge_building.tobj"
	texture_name[0] : "texture_base"
	add_ambient : 0
	diffuse : { 1 , 1 , 1 }
	reflection : 0
	shininess : 25
	specular : { 0.0331048 , 0.0331048 , 0.0331048 }
}
