material : "eut2.dif.spec.rfx" {
	texture[0] : "/vehicle/driver/man/driver.tobj"
	texture_name[0] : "texture_base"
	add_ambient : 0
	diffuse : { 0.214041 , 0.214041 , 0.214041 }
	reflection : 0
	shininess : 10
	specular : { 0.0100228 , 0.0100228 , 0.0100228 }
}
