material : "eut2.dif.spec.rfx" {
	texture[0] : "/model/rock/mountain3.tobj"
	texture_name[0] : "texture_base"
	add_ambient : 0
	diffuse : { 1 , 1 , 1 }
	reflection : 0
	shininess : 60
	specular : { 0.0196066 , 0.0196066 , 0.0196066 }
}
