material : "eut2.water.rfx" {
	texture[0] : "/model/ui/garage/refl_n.tobj"
	texture_name[0] : "texture_layer0"
	texture[1] : "/model/ui/garage/refl_n.tobj"
	texture_name[1] : "texture_layer1"
	texture[2] : "/material/environment/vehicle_reflection.tobj"
	texture_name[2] : "texture_reflection"
	aux[0] : { 1 , 30 , 0.35 }
	aux[1] : { 0.0168074 , 0.0168074 , 0.0168074 }
	aux[2] : { 0.576246 , 0.576246 , 0.576246 }
	aux[3] : { 12 , 0 , 0.91 , 0.88 }
	aux[4] : { 45 , 0 , 4.5 , 4.9 }
	diffuse : { 0.0563037 , 0.0563037 , 0.0563037 }
	env_factor : { 0.761152 , 0.761152 , 0.761152 }
	shininess : 0
	specular : { 0.28139 , 0.28139 , 0.28139 }
}
