material : "eut2.building.add.env.day.rfx" {
	texture[0] : "/prefab/warehouse_orange/warehouse_green.tobj"
	texture_name[0] : "texture_base"
	texture[1] : "/material/environment/generic_reflection.tobj"
	texture_name[1] : "texture_reflection"
	add_ambient : 0
	aux[5] : 0
	diffuse : { 1 , 1 , 1 }
	env_factor : { 0.362647 , 0.362647 , 0.362647 }
	fresnel : { 0.2 , 0.9 }
	shininess : 90
	specular : { 0.839066 , 0.839066 , 0.839066 }
}
