material : "eut2.dif.spec.add.env.nofresnel.tsnmapuv.rfx" {
	texture[0] : "/vehicle/truck/scania_rcab_2009/8x4_c.tobj"
	texture_name[0] : "texture_base"
	texture[1] : "/vehicle/truck/scania_rcab_2009/8x4_n.tobj"
	texture_name[1] : "texture_nmap"
	texture[2] : "/material/environment/vehicle_reflection.tobj"
	texture_name[2] : "texture_reflection"
	add_ambient : 1
	diffuse : { 1 , 1 , 1 }
	env_factor : { 0.787412 , 0.787412 , 0.787412 }
	reflection : 0
	shininess : 60
	specular : { 1 , 1 , 1 }
}
