material : "eut2.dif.lum" {
	texture[0] : "/model/traffic_light/city.tobj"
	texture_name[0] : "texture_base"
	diffuse : { 1 , 1 , 1 }
	specular : { 0.0705882 , 0.0705882 , 0.0705882 }
	shininess : 64
	add_ambient : 0
	aux[1] : { 0 , 0 }

}
