material : "eut2.building.add.env.night.rfx" {
	texture[0] : "/prefab/aquaducts_netherlands/color_02.tobj"
	texture_name[0] : "texture_base"
	texture[1] : "/material/environment/building_reflection/building_ref.tobj"
	texture_name[1] : "texture_reflection"
	add_ambient : 0
	aux[5] : 0
	diffuse : { 1 , 1 , 1 }
	env_factor : { 1 , 1 , 1 }
	fresnel : { 0.2 , 0.9 }
	shininess : 4
	specular : { 0 , 0 , 0 }
}
