material : "eut2.dif.spec.decal.over.rfx" {
	texture[0] : "/vehicle/truck/iveco_hiway/interior/mrizka.tobj"
	texture_name[0] : "texture_base"
	add_ambient : 0
	diffuse : { 1 , 1 , 1 }
	reflection : 0
	shininess : 50
	specular : { 0.0107221 , 0.0107221 , 0.0107221 }
}
