material : "eut2.truckpaint.tsnmap16.airbrush.altuv.rfx" {
	texture[0] : "/vehicle/truck/daf_xf_euro6/carpaint_ao.tobj"
	texture_name[0] : "texture_base"
	texture[1] : "/vehicle/truck/daf_xf_euro6/carpaint_n.tobj"
	texture_name[1] : "texture_nmap"
	texture[2] : "/vehicle/truck/upgrade/paintjob/empty.tobj"
	texture_name[2] : "texture_paintjob"
	texture[3] : "/material/environment/vehicle_reflection.tobj"
	texture_name[3] : "texture_reflection"
	add_ambient : 0
	aux[8] : { 1 , 1.42652e-07 , 1.40201e-08 }
	diffuse : { 1 , 1 , 1 }
	env_factor : { 0.073239 , 0.073239 , 0.073239 }
	fresnel : { 0.2 , 0.9 }
	shininess : 250
	specular : { 1.5 , 1.5 , 1.5 }
}
