material : "eut2.dif.spec" {
	texture[0] : "/prefab/recruitment_agency/recruitment_agency.tobj"
	texture_name[0] : "texture_base"
	diffuse : { 1 , 1 , 1 }
	specular : { 0.318547 , 0.318547 , 0.318547 }
	shininess : 32
	add_ambient : 0
	reflection : 0
}
