material : "eut2.dif.spec.add.env.nofresnel.rfx" {
	texture[0] : "/vehicle/truck/upgrade/mirror/iveco_stralis/mirror_03.tobj"
	texture_name[0] : "texture_base"
	texture[1] : "/material/environment/vehicle_reflection.tobj"
	texture_name[1] : "texture_reflection"
	add_ambient : 0
	diffuse : { 1 , 1 , 1 }
	env_factor : { 0.787412 , 0.787412 , 0.787412 }
	reflection : 0
	shininess : 60
	specular : { 1 , 1 , 1 }
}
