material : "eut2.building.add.env.day.rfx" {
	texture[0] : "/model/building/administration/horiz_framed.tobj"
	texture_name[0] : "texture_base"
	texture[1] : "/material/environment/building_reflection/building_ref.tobj"
	texture_name[1] : "texture_reflection"
	add_ambient : 0
	diffuse : { 1 , 1 , 1 }
	env_factor : { 1 , 1 , 1 }
	shininess : 4
	specular : { 0.0254563 , 0.0254563 , 0.0254563 }
}
