material : "eut2.dif.spec.rfx" {
	texture[0] : "/vehicle/truck/scania_rcab_2009/interior/plastic_dark.tobj"
	texture_name[0] : "texture_base"
	add_ambient : 0
	diffuse : { 1 , 1 , 1 }
	reflection : 0
	shininess : 40
	specular : { 0.0641813 , 0.0641813 , 0.0641813 }
}
