material : "eut2.dif.spec.rfx" {
	texture[0] : "/model/sign/traffic/border_speed_sk.tobj"
	texture_name[0] : "texture_base"
	add_ambient : 0
	diffuse : { 1 , 1 , 1 }
	reflection : 0
	shininess : 50
	specular : { 0.202743 , 0.202743 , 0.202743 }
}
