material : "eut2.glass.rfx" {
	texture[0] : "/material/special/glass_building_01.tobj"
	texture_name[0] : "texture_base"
	texture[1] : "/material/environment/vehicle_reflection.tobj"
	texture_name[1] : "texture_reflection"
	add_ambient : 0
	diffuse : { 1 , 1 , 1 }
	env_factor : { 1 , 1 , 1 }
	fresnel : { 0.4 , 0.9 }
	shininess : 95
	specular : { 0.320492 , 0.320492 , 0.320492 }
	tint : { 0.788243 , 0.788243 , 0.788243 }
	tint_opacity : 0
}
