material : "eut2.dif.spec.mult.dif.spec.rfx" {
	texture[0] : "/vehicle/truck/daf_xf_euro6/interior/walls_textile.tobj"
	texture_name[0] : "texture_base"
	texture[1] : "/vehicle/truck/daf_xf_euro6/interior/interior_ao.tobj"
	texture_name[1] : "texture_mult"
	add_ambient : 0
	diffuse : { 1 , 0.770273 , 0.583687 }
	reflection : 0
	shininess : 4
	specular : { 0 , 0 , 0 }
}
