material : "eut2.dif.spec.weight.weight.dif.spec.weight" {
	texture[0] : "/prefab/quarry/dirtyroad001.tobj"
	texture_name[0] : "texture_base"
	texture[1] : "/material/road/ground_path1.tobj"
	texture_name[1] : "texture_over"
	substance : "road"
	diffuse : { 1 , 1 , 1 }
	specular : { 1 , 1 , 1 }
	shininess : 8
	add_ambient : 0
	reflection : 0
	aux[3] : { 1 , 1 , 1 , 8 }
	reflection2 : 0.3
}
