material : "eut2.dif.spec.rfx" {
	texture[0] : "/model/physics_testing_ground/dark_c.tobj"
	texture_name[0] : "texture_base"
	add_ambient : 1
	diffuse : { 1 , 1 , 1 }
	reflection : 0
	shininess : 4
	specular : { 0 , 0 , 0 }
	substance : "snow"
}
