material : "eut2.dif.spec.weight.add.env.rfx" {
	texture[0] : "/vehicle/share/textures/generic/white_0.tobj"
	texture_name[0] : "texture_base"
	texture[1] : "/material/environment/interior_static/interior_static.tobj"
	texture_name[1] : "texture_reflection"
	add_ambient : -0.25
	diffuse : { 0.214041 , 0.214041 , 0.214041 }
	env_factor : { 0.214041 , 0.214041 , 0.214041 }
	fresnel : { 1 , 1 }
	reflection : 0
	shininess : 70
	specular : { 3 , 3 , 3 }
}
