material : "eut2.building.add.env.day.rfx" {
	texture[0] : "/model/building/administration/car_dealer.tobj"
	texture_name[0] : "texture_base"
	texture[1] : "/material/environment/building_reflection/building_ref.tobj"
	texture_name[1] : "texture_reflection"
	add_ambient : 0
	diffuse : { 1 , 1 , 1 }
	env_factor : { 0.787412 , 0.787412 , 0.787412 }
	shininess : 60
	specular : { 0.787412 , 0.787412 , 0.787412 }
}
