material : "eut2.dif.spec.add.env.nofresnel.rfx" {
	texture[0] : "/vehicle/trailer_eu/brick_trailer/brick_trailer_green.tobj"
	texture_name[0] : "texture_base"
	texture[1] : "/material/environment/vehicle_reflection.tobj"
	texture_name[1] : "texture_reflection"
	add_ambient : 0
	diffuse : { 1 , 1 , 1 }
	env_factor : { 1 , 1 , 1 }
	reflection : 0
	shininess : 60
	specular : { 0.275959 , 0.275959 , 0.275959 }
}
