material : "eut2.dif.spec.weight.mult2.weight2.rfx" {
	texture[0] : "/material/road/road_template/sc/dirt_def_swe.tobj"
	texture_name[0] : "texture_base"
	texture[1] : "/material/road/road_template/sc/asphalt_def_swe.tobj"
	texture_name[1] : "texture_mult"
	texture[2] : "/material/road/road_template/sc/dirt_light_gray.tobj"
	texture_name[2] : "texture_base_1"
	texture[3] : "/material/road/road_template/sc/asphalt_light_gray.tobj"
	texture_name[3] : "texture_mult_1"
	add_ambient : 0
	aux[3] : { 1 , 1 , 1 , 40 }
	aux[5] : { 4.4 , 12 , 4.4 , 12 }
	diffuse : { 1 , 1 , 1 }
	reflection : 1.3
	reflection2 : 1.3
	shininess : 40
	specular : { 1 , 0.823503 , 0.823503 }
	substance : "road"
}
