material : "eut2.dif.spec.rfx" {
	texture[0] : "/prefab/tollgate/large_it_fr_tollgate/toll_small_blue.tobj"
	texture_name[0] : "texture_base"
	add_ambient : 0
	diffuse : { 1 , 1 , 1 }
	reflection : 0
	shininess : 15
	specular : { 0.073239 , 0.073239 , 0.073239 }
}
