material : "eut2.dif.spec.weight.rfx" {
	texture[0] : "/vehicle/truck/upgrade/mirror/renault_premium/mirror_01.tobj"
	texture_name[0] : "texture_base"
	add_ambient : 0
	diffuse : { 1 , 1 , 1 }
	reflection : 0
	shininess : 30
	specular : { 1 , 1 , 1 }
}
