material : "eut2.dif.spec.weight.rfx" {
	texture[0] : "/vehicle/truck/upgrade/doorhandle/renault_premium/doorhandle_01.tobj"
	texture_name[0] : "texture_base"
	add_ambient : 0
	diffuse : { 1 , 1 , 1 }
	reflection : 0
	shininess : 30
	specular : { 0.0468344 , 0.0468344 , 0.0468344 }
}
