material : "eut2.building.add.env.day.rfx" {
	texture[0] : "/prefab/port/port5.tobj"
	texture_name[0] : "texture_base"
	texture[1] : "/material/environment/generic_reflection.tobj"
	texture_name[1] : "texture_reflection"
	add_ambient : 0
	diffuse : { 1 , 1 , 1 }
	env_factor : { 1 , 1 , 1 }
	fresnel : { 0.2 , 0.9 }
	shininess : 35
	specular : { 0.787412 , 0.787412 , 0.787412 }
}
