material : "eut2.glass.rfx" {
	texture[0] : "/vehicle/truck/daf_xf/color.tobj"
	texture_name[0] : "texture_base"
	texture[1] : "/material/environment/interior_reflection.tobj"
	texture_name[1] : "texture_reflection"
	add_ambient : 0
	diffuse : { 1 , 1 , 1 }
	env_factor : { 0.522522 , 0.522522 , 0.522522 }
	fresnel : { 0.2 , 0.9 }
	shininess : 95
	specular : { 1 , 1 , 1 }
	tint : { 0.570482 , 0.603827 , 0.587017 }
	tint_opacity : -0.01
}
