material : "eut2.dif.spec.weight.weight.dif.spec.weight.tg0" {
	texture[0] : "/prefab/quarry/rocky_dirt.tobj"
	texture_name[0] : "texture_base"
	texture[1] : "/prefab/quarry/dirt.tobj"
	texture_name[1] : "texture_over"
	diffuse : { 1 , 1 , 1 }
	specular : { 1 , 1 , 1 }
	shininess : 4
	add_ambient : 0
	reflection : 0
	aux[3] : { 0 , 0 , 0 , 4 }
	reflection2 : 0
	aux[0] : { 40 , 40 }
}
