material : "eut2.dif.spec.tsnmap.rfx" {
	texture[0] : "/vehicle/truck/upgrade/mirror/iveco_hiway/mirrors_lr_normal.tobj"
	texture_name[0] : "texture_nmap"
	texture[1] : "/vehicle/truck/upgrade/mirror/iveco_hiway/mirrors_lr_color.tobj"
	texture_name[1] : "texture_base"
	add_ambient : 0
	diffuse : { 1 , 1 , 1 }
	reflection : 0
	shininess : 20
	specular : { 0.132868 , 0.132868 , 0.132868 }
}
