material : "eut2.dif.spec.rfx" {
	texture[0] : "/vehicle/truck/volvo_fh16_2009/interior/floor.tobj"
	texture_name[0] : "texture_base"
	add_ambient : 0
	diffuse : { 0.787412 , 0.887139 , 1 }
	reflection : 0
	shininess : 40
	specular : { 0.0641813 , 0.0641813 , 0.0641813 }
}
