material : "eut2.truckpaint.flipflake.altuv.rfx" {
	texture[0] : "/vehicle/truck/upgrade/mirror/mercedes_actros_2009/mirror_01.tobj"
	texture_name[0] : "texture_base"
	texture[1] : "/material/environment/vehicle_reflection.tobj"
	texture_name[1] : "texture_reflection"
	texture[2] : "/vehicle/truck/upgrade/paintjob/empty.tobj"
	texture_name[2] : "texture_paintjob"
	texture[3] : "/material/custom/flake_noise.tobj"
	texture_name[3] : "texture_flakenoise"
	add_ambient : 0
	aux[5] : { 48 , 50 , 2.4 , 0 }
	aux[6] : { 1 , 1 , 0 , 1 }
	aux[7] : { 0 , 0 , 1 , 0.27 }
	aux[8] : { 1 , 0 , 0 }
	diffuse : { 1 , 1 , 1 }
	env_factor : { 0.073239 , 0.073239 , 0.073239 }
	fresnel : { 0.2 , 0.9 }
	shininess : 250
	specular : { 1.5 , 1.5 , 1.5 }
}
