material : "eut2.dif.spec.add.env.nofresnel.rfx" {
	texture[0] : "/vehicle/wheel/car/generic/18in_normal/18in_1.tobj"
	texture_name[0] : "texture_base"
	texture[1] : "/material/environment/vehicle_reflection.tobj"
	texture_name[1] : "texture_reflection"
	add_ambient : 0
	diffuse : { 0.214041 , 0.214041 , 0.214041 }
	env_factor : { 0.0131232 , 0.0131232 , 0.0131232 }
	reflection : 0
	shininess : 10
	specular : { 0.380056 , 0.380056 , 0.380056 }
}
