material : "eut2.dif.spec.weight.shadow.tg0"
{
	texture : "countryside_far2_it.tobj"
	texture_name : "texture_base"
	substance : "snow"
	aux[0] : { 200, 200 }
	
	specular : { 0.1, 0.1, 0.1 }
	shininess : 8
}
