material : "eut2.dif.spec.weight.shadow.tg0"
{
	texture : "fallen_leaves_sc.tobj"
	texture_name : "texture_base"
	substance : "snow"
	aux[0] : { 8, 8}
	
	specular : { 0.2, 0.2, 0.2 }
	shininess : 12
}
