material : "eut2.dif.spec.weight.shadow.tg0"
{
	texture : "field_sunflowers_far_512_fr.tobj"
	texture_name : "texture_base"
	substance : "snow"
	aux[0] : { 20, 20 }
	
	specular : { 0.1, 0.1, 0.1 }
	shininess : 8
}
