material : "eut2.dif.spec.weight.shadow.tg0"
{
texture : "field_brown_green.tobj"
texture_name : "texture_base"
substance : "snow"
aux[0] : { 10, 10 }

	specular : { 0.2, 0.2, 0.2 }
	shininess : 12
}
