material : "eut2.dif.spec.weight.shadow.tg0"
{
	texture : "rape_low_fr.tobj"
	texture_name : "texture_base"
	substance : "snow"
	aux[0] : { 8, 8, 135 }
	
	specular : { 0.1, 0.1, 0.1 }
	shininess : 8
}
