material : "eut2.dif.spec.weight.shadow.tg0"
{
	texture : "field_empty1_fr.tobj"
	texture_name : "texture_base"
	substance : "snow"
	aux[0] : { 13, 13, 45 }
	
	specular : { 0.1, 0.1, 0.1 }
	shininess : 8
}
