material : "eut2.dif.spec.weight.shadow.tg0"
{
	texture : "field_wheat_young_fr.tobj"
	texture_name : "texture_base"
	substance : "snow"
	aux[0] : { 14, 14 }
	
	specular : { 0.1, 0.1, 0.1 }
	shininess : 8
}
