material : "eut2.dif.spec.weight.shadow.tg0"
{
	texture : "grass_yellow_x_rocky_land_512_sc.tobj"
	texture_name : "texture_base"
	substance : "snow"
	aux[0] : { 11, 11}
	
	specular : { 0.1, 0.1, 0.1 }
	shininess : 12
}
