material : "eut2.dif.spec.weight.shadow.tg0"
{
	texture : "grass_semigreen_main_nograss_fr.tobj"
	texture_name : "texture_base"
	substance : "snow"
	aux[0] : { 13, 13 }
	
	specular : { 0.1, 0.1, 0.1 }
	shininess : 12
}
