material : "eut2.dif.spec.weight.shadow.tg0"
{
	texture : "grass_flowers1_main_fr.tobj"
	texture_name : "texture_base"
	substance : "snow"
	aux[0] : { 6, 6 }
	
	specular : { 0.1, 0.1, 0.1 }
	shininess : 8
}
