material : "eut2.dif.spec.weight.shadow.tg0"
{
	texture : "ground_rocky_sc.tobj"
	texture_name : "texture_base"
	substance : "snow"
	aux[0] : { 12, 12 }
	
	specular : { 0.2, 0.2, 0.2 }
	shininess : 16
}
