material : "eut2.dif.spec.weight.shadow.tg0"
{
	texture : "groundplants1_nograss_it.tobj"
	texture_name : "texture_base"
	substance : "snow"
	aux[0] : { 10, 10 }
	
	specular : { 0.1, 0.1, 0.1 }
	shininess : 8
}
