material : "eut2.dif.spec.weight.shadow.tg0"
{
	texture : "pebble_stones_3_512.tobj"
	texture_name : "texture_base"
	substance : "snow"
	aux[0] : { 6, 6 }
	
	specular : { 0.3, 0.3, 0.3 }
	shininess : 12
}
