material : "eut2.dif.spec.weight.shadow.tg0"
{
	texture : "sidewalk_a_it.tobj"
	texture_name : "texture_base"
	substance : "snow"
	aux[0] : { 10, 10 }
	
	specular : { 1.0, 1.0, 1.0 }
	shininess : 65
}
