material : "eut2.dif.spec.weight.shadow.tg0"
{
	texture : "stones_grey_fr.tobj"
	texture_name : "texture_base"
	substance : "snow"
	aux[0] : { 12, 12 }
	
	specular : { 0.1, 0.1, 0.1 }
	shininess : 6
}
