material : "eut2.dif.spec.a.rfx" {
	texture[0] : "/model/panorama/generic/uk_pan_gen_1.tobj"
	texture_name[0] : "texture_base"
	add_ambient : 0
	diffuse : { 1 , 1 , 1 }
	reflection : 0
	shininess : 12
	specular : { 0.00468048 , 0.00468048 , 0.00468048 }
}
