material : "eut2.dif.lum.lvcol.decal.over.rfx" {
	texture[0] : "/vehicle/truck/daf_xf_euro6/interior/dashboard_details_02.tobj"
	texture_name[0] : "texture_base"
	add_ambient : 0
	diffuse : { 1 , 1 , 1 }
	reflection : 0
	shininess : 60
	specular : { 0 , 0 , 0 }
}
