material : "eut2.dif.spec.weight.rfx" {
	texture[0] : "/model/traffic_light/traffic_lights_ch.tobj"
	texture_name[0] : "texture_base"
	add_ambient : 0
	diffuse : { 1 , 1 , 1 }
	reflection : 0
	shininess : 15
	specular : { 0.603827 , 0.603827 , 0.603827 }
}
