material : "eut2.dif.spec" {
	texture[0] : "/prefab/hotel/pavement_herringbone.tobj"
	texture_name[0] : "texture_base"
	diffuse : { 0.929412 , 0.862745 , 1 }
	specular : { 0.211765 , 0.211765 , 0.211765 }
	shininess : 12
	add_ambient : 0
	aux[1] : { 0 , 0 }

}
