material : "eut2.dif.spec.rfx" {
	texture[0] : "/vehicle/truck/scania_rcab_2009/interior/fabric_walls.tobj"
	texture_name[0] : "texture_base"
	add_ambient : 0
	diffuse : { 1 , 1 , 1 }
	reflection : 0
	shininess : 5
	specular : { 0.0100228 , 0.0100228 , 0.0100228 }
}
