material : "eut2.dif.spec.decal.over.rfx" {
	texture[0] : "/model/hedge_ygreen.tobj"
	texture_name[0] : "texture_base"
	add_ambient : 0
	diffuse : { 1 , 1 , 1 }
	reflection : 0
	shininess : 12
	specular : { 0.0100228 , 0.0100228 , 0.0100228 }
}
