material : "eut2.dif.spec.rfx" {
	texture[0] : "/model/mover/small_windmill.tobj"
	texture_name[0] : "texture_base"
	add_ambient : 0
	diffuse : { 1 , 1 , 1 }
	reflection : 0
	shininess : 12
	specular : { 0.0193232 , 0.0193232 , 0.0193232 }
}
