material : "eut2.dif.spec.add.env.rfx" {
	texture[0] : "/prefab/tollgate/large_it_fr_tollgate/toll_small_yellow.tobj"
	texture_name[0] : "texture_base"
	texture[1] : "/material/environment/vehicle_reflection.tobj"
	texture_name[1] : "texture_reflection"
	add_ambient : 0
	diffuse : { 1 , 1 , 1 }
	env_factor : { 1 , 1 , 1 }
	reflection : 0
	shininess : 35
	specular : { 0.318547 , 0.318547 , 0.318547 }
}
