material : "eut2.dif.spec.decal.over.rfx" {
	texture[0] : "/model/wall/anti_noise_at.tobj"
	texture_name[0] : "texture_base"
	add_ambient : 0
	diffuse : { 1 , 1 , 1 }
	reflection : 0
	shininess : 15
	specular : { 0.0331048 , 0.0331048 , 0.0331048 }
}
