material : "eut2.dif.spec.rfx" {
	texture[0] : "/vehicle/truck/daf_xf_euro6/interior/bed_textil.tobj"
	texture_name[0] : "texture_base"
	add_ambient : 0
	diffuse : { 0.0962807 , 0.0962807 , 0.0962807 }
	reflection : 0
	shininess : 4
	specular : { 0.116891 , 0.116891 , 0.116891 }
}
