material : "eut2.dif.spec.weight.weight.dif.spec.weight.tg0.tg1.rfx" {
	texture[0] : "/material/terrain/grass_city_512_sfr.tobj"
	texture_name[0] : "texture_base"
	texture[1] : "/material/terrain/dirt.tobj"
	texture_name[1] : "texture_over"
	add_ambient : 0
	aux[0] : { 4 , 4 }
	aux[1] : { 3 , 3 }
	aux[3] : { 0.2 , 0.2 , 0.2 , 12 }
	diffuse : { 1 , 1 , 1 }
	reflection : 0
	reflection2 : 0
	shininess : 8
	specular : { 0.0100228 , 0.0100228 , 0.0100228 }
	substance : "dirt"
}
