material : "eut2.dif.shadow.tg0.rfx" {
	texture[0] : "/material/terrain/grass_spotted_main.tobj"
	texture_name[0] : "texture_base"
	add_ambient : 0
	aux[0] : { 10 , 10 }
	diffuse : { 1 , 1 , 1 }
	reflection : 0
	shadow_bias : 0
	shininess : 4
	specular : { 0 , 0 , 0 }
}
