material : "eut2.dif.spec.rfx" {
	texture[0] : "/prefab/tollgate/tollgate_a2_poland/color.tobj"
	texture_name[0] : "texture_base"
	add_ambient : 0
	diffuse : { 1 , 1 , 1 }
	reflection : 0
	shininess : 4
	specular : { 0.0212568 , 0.0212568 , 0.0212568 }
}
