material : "eut2.dif.spec.rfx" {
	texture[0] : "/vehicle/ai/truck/mercedes_actros_2009/color.tobj"
	texture_name[0] : "texture_base"
	add_ambient : 0
	diffuse : { 1 , 1 , 1 }
	reflection : 0
	shininess : 40
	specular : { 0.416858 , 0.416858 , 0.416858 }
}
