material : "eut2.lamp.add.env.rfx" {
	texture[0] : "/vehicle/truck/iveco_hiway/lamps_color.tobj"
	texture_name[0] : "texture_base"
	texture[1] : "/vehicle/truck/iveco_hiway/lamps_mask.tobj"
	texture_name[1] : "texture_mask"
	texture[2] : "/material/environment/vehicle_reflection.tobj"
	texture_name[2] : "texture_reflection"
	add_ambient : 0
	diffuse : { 1 , 1 , 1 }
	env_factor : { 1 , 1 , 1 }
	fresnel : { 0 , 0 }
	shininess : 80
	specular : { 0.073239 , 0.073239 , 0.073239 }
}
