material : "eut2.dif.spec.rfx" {
	texture[0] : "/vehicle/truck/scania_rcab_2009/interior/leather_seats_beige.tobj"
	texture_name[0] : "texture_base"
	add_ambient : 0
	diffuse : { 0.522522 , 0.522522 , 0.522522 }
	reflection : 0
	shininess : 15
	specular : { 0.073239 , 0.073239 , 0.073239 }
}
