material : "eut2.glass.rfx" {
	texture[0] : "/model/vehicle/traktor_green_far.tobj"
	texture_name[0] : "texture_base"
	texture[1] : "/material/environment/vehicle_reflection.tobj"
	texture_name[1] : "texture_reflection"
	add_ambient : 0
	diffuse : { 1 , 1 , 1 }
	env_factor : { 3 , 3 , 3 }
	shininess : 95
	specular : { 0.214041 , 0.214041 , 0.214041 }
	tint : { 0.563945 , 0.603827 , 0.585291 }
	tint_opacity : -0.01
}
