material : "eut2.dif" {
	texture[0] : "/vehicle/truck/upgrade/tire/textures/pp3tyre1.tobj"
	texture_name[0] : "texture_base"
	add_ambient : 0
	diffuse : { 1.0 , 1.0 , 1.0 }
	shininess : 54
	specular : { 0.00784314 , 0.00784314 , 0.00784314 }
}
