material : "eut2.dif.shadow.a.rfx" {
	texture[0] : "/prefab/construction/stadium.tobj"
	texture_name[0] : "texture_base"
	add_ambient : 0
	diffuse : { 1 , 1 , 1 }
	reflection : 0
	shadow_bias : 0
	shininess : 30
	specular : { 0.073239 , 0.073239 , 0.073239 }
}
