material : "eut2.dif.spec.a.rfx" {
	texture[0] : "/vehicle/trailer_eu/schmitz/s_ki_solid/cover.tobj"
	texture_name[0] : "texture_base"
	add_ambient : 0
	diffuse : { 1 , 1 , 1 }
	reflection : 0
	shininess : 50
	specular : { 0.163329 , 0.163329 , 0.163329 }
}
