material : "eut2.dif.a.rfx" {
	texture[0] : "/model/vegetation/grass/grass.tobj"
	texture_name[0] : "texture_base"
	add_ambient : 0
	diffuse : { 1 , 1 , 1 }
	reflection : 0
	shininess : 0
	specular : { 0 , 0 , 0 }
}
