material : "eut2.dif.spec.rfx" {
	texture[0] : "/prefab/eurotunnel/train.tobj"
	texture_name[0] : "texture_base"
	add_ambient : 0
	diffuse : { 1 , 1 , 1 }
	reflection : 0
	shininess : 20
	specular : { 2 , 2 , 2 }
}
