material : "eut2.dif.spec.add.env.rfx" {
	texture[0] : "/vehicle/truck/volvo_fh16_2009/color.tobj"
	texture_name[0] : "texture_base"
	texture[1] : "/material/environment/vehicle_reflection.tobj"
	texture_name[1] : "texture_reflection"
	add_ambient : 1
	diffuse : { 1 , 1 , 1 }
	env_factor : { 1 , 1 , 1 }
	fresnel : { 0.2 , 0.9 }
	reflection : 0
	shininess : 90
	specular : { 1 , 1 , 1 }
}
