material : "eut2.dif.spec.rfx" {
	texture[0] : "/model/railing/crash_barrier1.tobj"
	texture_name[0] : "texture_base"
	add_ambient : 0
	diffuse : { 1 , 1 , 1 }
	reflection : 0
	shininess : 35
	specular : { 0.603827 , 0.603827 , 0.603827 }
}
