material : "eut2.dif.lum.rfx" {
	texture[0] : "/vehicle/truck/renault_magnum_2009/interior/dashboard.tobj"
	texture_name[0] : "texture_base"
	add_ambient : 0
	diffuse : { 1 , 1 , 1 }
	reflection : 0
	shininess : 10
	specular : { 0.0331048 , 0.0331048 , 0.0331048 }
}
