material : "eut2.dif.over.rfx" {
	texture[0] : "/vehicle/trailer_eu/gooseneck/toxic_cistern_01.tobj"
	texture_name[0] : "texture_base"
	add_ambient : 0
	diffuse : { 1 , 1 , 1 }
	reflection : 0
	shininess : 50
	specular : { 0.0086653 , 0.0086653 , 0.0086653 }
}
