material : "eut2.dif.spec.rfx" {
	texture[0] : "/model/dock/sawmill/details.tobj"
	texture_name[0] : "texture_base"
	add_ambient : 0
	diffuse : { 1 , 1 , 1 }
	reflection : 0
	shininess : 65
	specular : { 0.447988 , 0.447988 , 0.447988 }
}
