material : "eut2.dif.spec.weight.add.env.tsnmap.rfx" {
	texture[0] : "/model/ui/garage/garage_atlas_c.tobj"
	texture_name[0] : "texture_base"
	texture[1] : "/model/ui/garage/garage_atlas_n.tobj"
	texture_name[1] : "texture_nmap"
	texture[2] : "/material/environment/vehicle_reflection.tobj"
	texture_name[2] : "texture_reflection"
	add_ambient : 0
	diffuse : { 0.131366 , 0.131366 , 0.131366 }
	env_factor : { 0.373826 , 0.373826 , 0.373826 }
	fresnel : { 0.2 , 0.9 }
	reflection : 0
	shininess : 12
	specular : { 0.284529 , 0.284529 , 0.284529 }
}
