material : "eut2.dif.spec.rfx" {
	texture[0] : "/vehicle/truck/man_tgx/color.tobj"
	texture_name[0] : "texture_base"
	add_ambient : 0
	diffuse : { 1 , 1 , 1 }
	reflection : 0
	shininess : 20
	specular : { 0.100481 , 0.100481 , 0.100481 }
}
