material : "eut2.dif.spec.mult.dif.spec.rfx" {
	texture[0] : "/material/road/kerb_tile.tobj"
	texture_name[0] : "texture_base"
	texture[1] : "/prefab/bridge/sikorskiego_ao.tobj"
	texture_name[1] : "texture_mult"
	add_ambient : 0
	diffuse : { 1 , 1 , 1 }
	reflection : 0.4
	shininess : 8
	specular : { 0.073239 , 0.073239 , 0.073239 }
}
