material : "eut2.dif.spec.add.env.indenv.tsnmapuv.rfx" {
	texture[0] : "/vehicle/truck/volvo_fh16_2012/interior/details_c.tobj"
	texture_name[0] : "texture_base"
	texture[1] : "/vehicle/truck/volvo_fh16_2012/interior/details_n.tobj"
	texture_name[1] : "texture_nmap"
	texture[2] : "/material/environment/interior_reflection.tobj"
	texture_name[2] : "texture_reflection"
	add_ambient : 0
	diffuse : { 0.545725 , 0.545725 , 0.545725 }
	env_factor : { 1 , 1 , 1 }
	fresnel : { -1.07 , 1.1 }
	reflection : 0
	shininess : 20
	specular : { 0.0065714 , 0.0065714 , 0.0065714 }
}
