material : "eut2.dif.spec.shadow.rfx" {
	texture[0] : "/model2/sign/company_logos/marina_fr/marina_fr.tobj"
	texture_name[0] : "texture_base"
	add_ambient : 0
	diffuse : { 1 , 1 , 1 }
	reflection : 0
	shadow_bias : -2
	shininess : 26
	specular : { 0.132868 , 0.132868 , 0.132868 }
}
