material : "eut2.dif.spec.weight.weight.dif.spec.weight.tg0.rfx" {
	texture[0] : "/material/road/dark_c3.tobj"
	texture_name[0] : "texture_base"
	texture[1] : "/material/road/asphalt_fr.tobj"
	texture_name[1] : "texture_over"
	add_ambient : 0
	aux[0] : { 5 , 5 }
	aux[3] : { 1.6 , 1.6 , 1.6 , 15 }
	diffuse : { 1 , 1 , 1 }
	reflection : 1
	reflection2 : 1
	shininess : 8
	specular : { 1 , 1 , 1 }
	substance : "road"
}
