material : "eut2.dif.spec.add.env.rfx" {
	texture[0] : "/material/metal/brushed_metal.tobj"
	texture_name[0] : "texture_base"
	texture[1] : "/material/environment/vehicle_reflection.tobj"
	texture_name[1] : "texture_reflection"
	add_ambient : 0
	diffuse : { 0.214041 , 0.214041 , 0.214041 }
	env_factor : { 1 , 1 , 1 }
	fresnel : { 0 , 0 }
	reflection : 0
	shininess : 30
	specular : { 0.977402 , 0.999109 , 1 }
}
