material : "eut2.dif.spec.rfx" {
	texture[0] : "/prefab/bridge/gen_bridge_tirolachen_braun.tobj"
	texture_name[0] : "texture_base"
	add_ambient : 0
	diffuse : { 1 , 1 , 1 }
	reflection : 0
	shininess : 25
	specular : { 1 , 1 , 1 }
}
