material : "eut2.dif.spec.add.env.rfx" {
	texture[0] : "/model2/ship/houseboat_02_fr.tobj"
	texture_name[0] : "texture_base"
	texture[1] : "/material/environment/vehicle_reflection.tobj"
	texture_name[1] : "texture_reflection"
	add_ambient : 0
	diffuse : { 0.793811 , 0.793811 , 0.793811 }
	env_factor : { 0.180846 , 0.180846 , 0.180846 }
	fresnel : { 0.2 , 0.9 }
	reflection : 0
	shininess : 4
	specular : { 0.189998 , 0.189998 , 0.189998 }
}
