material : "eut2.dif.shadow.a.rfx" {
	texture[0] : "/prefab/heavy_factory/fence_001.tobj"
	texture_name[0] : "texture_base"
	add_ambient : 0
	diffuse : { 1 , 1 , 1 }
	reflection : 0
	shadow_bias : 0
	shininess : 32
	specular : { 0.0331048 , 0.0331048 , 0.0331048 }
}
