material : "eut2.dif.spec.rfx" {
	texture[0] : "/prefab/construction/hotel.tobj"
	texture_name[0] : "texture_base"
	add_ambient : 0
	diffuse : { 1 , 1 , 1 }
	reflection : 0
	shininess : 30
	specular : { 0.0300977 , 0.0300977 , 0.0300977 }
}
