material : "eut2.dif.spec.weight.weight.dif.spec.weight.tg0.tg1.rfx" {
	texture[0] : "/material/terrain/grass_sporadic_main.tobj"
	texture_name[0] : "texture_base"
	texture[1] : "/material/terrain/dirt_2_512.tobj"
	texture_name[1] : "texture_over"
	add_ambient : 0
	aux[0] : { 13 , 13 }
	aux[1] : { 8 , 8 }
	aux[3] : { 0.2 , 0.2 , 0.2 , 12 }
	diffuse : { 0.99925 , 0.99925 , 0.99925 }
	reflection : 0
	reflection2 : 0
	shininess : 12
	specular : { 0.0100228 , 0.0100228 , 0.0100228 }
	substance : "dirt"
}
