material : "eut2.dif.spec.mult.dif.spec.rfx" {
	texture[0] : "/model/railing/tunnel/hw2_tunnel_01.tobj"
	texture_name[0] : "texture_base"
	texture[1] : "/model/railing/tunnel/hw2_tunnel_01.tobj"
	texture_name[1] : "texture_mult"
	add_ambient : 0
	diffuse : { 1 , 1 , 1 }
	reflection : 0
	shininess : 20
	specular : { 1 , 1 , 1 }
}
