material : "eut2.dif.spec.add.env.nofresnel.tsnmap.rfx" {
	texture[0] : "/vehicle/truck/mercedes_actros_2014/interior/details.tobj"
	texture_name[0] : "texture_base"
	texture[1] : "/vehicle/truck/mercedes_actros_2014/interior/details_n.tobj"
	texture_name[1] : "texture_nmap"
	texture[2] : "/material/environment/generic_reflection.tobj"
	texture_name[2] : "texture_reflection"
	add_ambient : 0
	diffuse : { 1 , 1 , 1 }
	env_factor : { 0 , 0 , 0 }
	reflection : 0
	shininess : 60
	specular : { 0.073239 , 0.073239 , 0.073239 }
}
