material : "eut2.building.add.env.day.rfx" {
	texture[0] : "/prefab/warehouse_small/warehouse_small.tobj"
	texture_name[0] : "texture_base"
	texture[1] : "/material/environment/building_reflection/building_ref.tobj"
	texture_name[1] : "texture_reflection"
	add_ambient : 0
	aux[5] : 0
	diffuse : { 1 , 1 , 1 }
	env_factor : { 0.318547 , 0.318547 , 0.318547 }
	fresnel : { 0.2 , 0.9 }
	shininess : 100
	specular : { 0.80554 , 0.80554 , 0.80554 }
}
