material : "eut2.dif.spec.add.env.nofresnel.rfx" {
	texture[0] : "/prefab/garage/wall.tobj"
	texture_name[0] : "texture_base"
	texture[1] : "/prefab/garage/env.tobj"
	texture_name[1] : "texture_reflection"
	add_ambient : 0
	diffuse : { 1 , 1 , 1 }
	env_factor : { 1 , 1 , 1 }
	reflection : 0
	shininess : 16
	specular : { 0.132868 , 0.132868 , 0.132868 }
}
