material : "eut2.dif.spec.rfx" {
	texture[0] : "/model/wall/new_handrail.tobj"
	texture_name[0] : "texture_base"
	add_ambient : 0
	diffuse : { 0.00417168 , 0.329597 , 0.688406 }
	reflection : 0
	shininess : 40
	specular : { 0.603827 , 0.603827 , 0.603827 }
}
