material : "eut2.dif.spec.weight.tg0.rfx" {
	texture[0] : "/material/terrain/grass_semidry_main_south_fr.tobj"
	texture_name[0] : "texture_base"
	add_ambient : 0
	aux[0] : { 13 , 13 }
	diffuse : { 1 , 1 , 1 }
	reflection : 0
	shininess : 13
	specular : { 0.0100228 , 0.0100228 , 0.0100228 }
}
