material : "eut2.dif.spec.a.rfx" {
	texture[0] : "/vehicle/trailer_eu/log_trailer/plain.tobj"
	texture_name[0] : "texture_base"
	add_ambient : 0
	diffuse : { 1 , 1 , 1 }
	reflection : 0
	shininess : 20
	specular : { 0.040778 , 0.040778 , 0.040778 }
}
