material : "eut2.dif.spec.over.dif.opac.shadow.rfx" {
	texture[0] : "/vehicle/trailer_eu/schmitz/s_ki_solid/color.tobj"
	texture_name[0] : "texture_base"
	texture[1] : "/vehicle/trailer_eu/schmitz/universal/paintjob_schmitz.tobj"
	texture_name[1] : "texture_over"
	add_ambient : 0
	diffuse : { 1 , 1 , 1 }
	reflection : 0
	reflection2 : 0
	shadow_bias : 0
	shininess : 24
	specular : { 0.373133 , 0.373133 , 0.373133 }
}
