material : "eut2.glass.rfx" {
	texture[0] : "/vehicle/truck/share/glass.tobj"
	texture_name[0] : "texture_base"
	texture[1] : "/material/environment/building_reflection/building_ref.tobj"
	texture_name[1] : "texture_reflection"
	add_ambient : 0
	diffuse : { 1 , 1 , 1 }
	env_factor : { 5 , 5 , 5 }
	fresnel : { 0.2 , 0.9 }
	shininess : 60
	specular : { 0.0508761 , 0.0508761 , 0.0508761 }
	tint : { 0.933107 , 1 , 0.968905 }
	tint_opacity : 0.9
}
