material : "eut2.dif.spec.shadow" {
	texture[0] : "/model/power_line/wooden_powerline.tobj"
	texture_name[0] : "texture_base"
	diffuse : { 1 , 1 , 1 }
	specular : { 0.0732389 , 0.0732389 , 0.0732389 }
	shininess : 20
	add_ambient : 0
	reflection : 0
	shadow_bias : 0
}
