material : "eut2.dif.spec.add.env.rfx" {
	texture[0] : "/vehicle/trailer_eu/gooseneck/gooseneck_003.tobj"
	texture_name[0] : "texture_base"
	texture[1] : "/material/environment/vehicle_reflection.tobj"
	texture_name[1] : "texture_reflection"
	add_ambient : 0
	diffuse : { 1 , 1 , 1 }
	env_factor : { 1 , 1 , 1 }
	fresnel : { 0 , 0 }
	reflection : 0
	shininess : 64
	specular : { 0.073239 , 0.073239 , 0.073239 }
}
