material : "eut2.dif.spec.shadow.rfx" {
	texture[0] : "/model/power_line/wooden_powerline.tobj"
	texture_name[0] : "texture_base"
	add_ambient : 0
	diffuse : { 1 , 1 , 1 }
	reflection : 0
	shadow_bias : 0
	shininess : 20
	specular : { 0.073239 , 0.073239 , 0.073239 }
}
