material : "eut2.dif.lum.rfx" {
	texture[0] : "/model/sign/gas/gas_fr.tobj"
	texture_name[0] : "texture_base"
	add_ambient : 0
	diffuse : { 1 , 1 , 1 }
	reflection : 0
	shininess : 50
	specular : { 0.189998 , 0.189998 , 0.189998 }
}
