material : "eut2.dif.spec.tsnmap.rfx" {
	texture[0] : "/vehicle/truck/upgrade/doorstep/volvo_fh16_2012/doorstep_05_n.tobj"
	texture_name[0] : "texture_nmap"
	texture[1] : "/vehicle/truck/upgrade/doorstep/volvo_fh16_2012/doorstep_05_c.tobj"
	texture_name[1] : "texture_base"
	add_ambient : 0
	diffuse : { 1 , 1 , 1 }
	reflection : 0
	shininess : 50
	specular : { 0.4619 , 0.4619 , 0.4619 }
}
