material : "eut2.dif.spec.rfx" {
	texture[0] : "/vehicle/trailer_eu/willig/fuel_cistern/decals.tobj"
	texture_name[0] : "texture_base"
	add_ambient : 0
	diffuse : { 1 , 1 , 1 }
	reflection : 0
	shininess : 50
	specular : { 1 , 1 , 1 }
}
