material : "eut2.dif.spec.rfx" {
	texture[0] : "/vehicle/truck/volvo_fh16_2009/color.tobj"
	texture_name[0] : "texture_base"
	add_ambient : 0
	diffuse : { 1 , 1 , 1 }
	reflection : 0
	shininess : 12
	specular : { 1 , 1 , 1 }
}
