material : "eut2.dif.spec.rfx" {
	texture[0] : "/vehicle/truck/iveco_stralis/interior/plastic_black.tobj"
	texture_name[0] : "texture_base"
	add_ambient : 0
	diffuse : { 0.787412 , 0.787412 , 0.787412 }
	reflection : 0
	shininess : 64
	specular : { 0.603827 , 0.603827 , 0.603827 }
}
