material : "eut2.dif.spec.rfx" {
	texture[0] : "/prefab/construction/stadium.tobj"
	texture_name[0] : "texture_base"
	add_ambient : 0
	diffuse : { 1 , 1 , 1 }
	reflection : 0
	shininess : 40
	specular : { 0.342197 , 0.342197 , 0.342197 }
}
