material : "eut2.dif.spec.rfx" {
	texture[0] : "/vehicle/truck/scania_rcab_2009/color_sl.tobj"
	texture_name[0] : "texture_base"
	add_ambient : 1
	diffuse : { 0.214041 , 0.214041 , 0.214041 }
	reflection : 0
	shininess : 24
	specular : { 0.318547 , 0.318547 , 0.318547 }
}
