material : "eut2.dif.spec.add.env.tsnmap.rfx" {
	texture[0] : "/vehicle/truck/daf_xf_euro6/interior/interior_details.tobj"
	texture_name[0] : "texture_base"
	texture[1] : "/vehicle/truck/daf_xf_euro6/interior/interior_details_n.tobj"
	texture_name[1] : "texture_nmap"
	texture[2] : "/material/environment/interior_reflection.tobj"
	texture_name[2] : "texture_reflection"
	add_ambient : 0
	diffuse : { 1 , 1 , 1 }
	env_factor : { 0.360196 , 0.360196 , 0.360196 }
	fresnel : { -1 , 1.1 }
	reflection : 0
	shininess : 50
	specular : { 1 , 1 , 1 }
}
