material : "eut2.dif.spec.over.rfx" {
	texture[0] : "/prefab/port/port5.tobj"
	texture_name[0] : "texture_base"
	add_ambient : 0
	diffuse : { 1 , 1 , 1 }
	reflection : 0
	shininess : 35
	specular : { 0.787412 , 0.787412 , 0.787412 }
}
