material : "eut2.dif.spec.add.env.decal.over.rfx" {
	texture[0] : "/vehicle/truck/scania_rcab_2009/interior/sew_1.tobj"
	texture_name[0] : "texture_base"
	texture[1] : "/material/environment/vehicle_reflection.tobj"
	texture_name[1] : "texture_reflection"
	add_ambient : 0
	diffuse : { 1 , 1 , 1 }
	env_factor : { 0 , 0 , 0 }
	fresnel : { -0.75 , 3 }
	reflection : 0
	shininess : 30
	specular : { 0.0100228 , 0.0100228 , 0.0100228 }
}
