material : "eut2.dif.spec.add.env.rfx" {
	texture[0] : "/vehicle/ai/mercedes_ce/color.tobj"
	texture_name[0] : "texture_base"
	texture[1] : "/material/environment/vehicle_reflection.tobj"
	texture_name[1] : "texture_reflection"
	add_ambient : 1
	diffuse : { 1 , 1 , 1 }
	env_factor : { 0.318547 , 0.318547 , 0.318547 }
	fresnel : { 0 , 0 }
	reflection : 0
	shininess : 95
	specular : { 0.787412 , 0.787412 , 0.787412 }
}
