material : "eut2.dif.spec.decal.over.rfx" {
	texture[0] : "/vehicle/trailer_eu/brick_trailer/shadow.tobj"
	texture_name[0] : "texture_base"
	add_ambient : 0
	diffuse : { 1 , 1 , 1 }
	reflection : 0
	shininess : 4
	specular : { 0 , 0 , 0 }
}
