material : "eut2.dif.spec.rfx" {
	texture[0] : "/model/sign/city_limits/city_limits_pecs_enter.tobj"
	texture_name[0] : "texture_base"
	add_ambient : 0
	diffuse : { 1 , 1 , 1 }
	reflection : 0
	shininess : 80
	specular : { 1 , 1 , 1 }
}
