material : "eut2.dif.spec.rfx" {
	texture[0] : "/material/rocks/rock_02_sc.tobj"
	texture_name[0] : "texture_base"
	add_ambient : 1
	diffuse : { 1 , 1 , 1 }
	reflection : 0
	shininess : 20
	specular : { 0.0331048 , 0.0331048 , 0.0331048 }
}
