material : "eut2.dif.spec.rfx" {
	texture[0] : "/model/aircraft/b747/b747_c.tobj"
	texture_name[0] : "texture_base"
	add_ambient : 0
	diffuse : { 1 , 1 , 1 }
	reflection : 0
	shininess : 40
	specular : { 3 , 3 , 3 }
}
