material : "eut2.dif.spec.rfx" {
	texture[0] : "/vehicle/truck/renault_premium/interior/plastic_grey.tobj"
	texture_name[0] : "texture_base"
	add_ambient : 0
	diffuse : { 1 , 1 , 1 }
	reflection : 0
	shininess : 10
	specular : { 0.132868 , 0.132868 , 0.132868 }
}
