material : "eut2.dif.spec.add.env.rfx" {
	texture[0] : "/prefab/bridge/bridge_linz_landmark.tobj"
	texture_name[0] : "texture_base"
	texture[1] : "/material/environment/building_reflection/building_ref.tobj"
	texture_name[1] : "texture_reflection"
	add_ambient : 0
	diffuse : { 1 , 1 , 1 }
	env_factor : { 0.0100228 , 0.0100228 , 0.0100228 }
	fresnel : { 0.2 , 0.9 }
	reflection : 0
	shininess : 35
	specular : { 1 , 1 , 1 }
}
