material : "eut2.dif.spec.rfx" {
	texture[0] : "/vehicle/wheel/steel/rear_trailer_new.tobj"
	texture_name[0] : "texture_base"
	add_ambient : 0
	diffuse : { 1 , 1 , 1 }
	reflection : 0
	shininess : 20
	specular : { 0.214041 , 0.214041 , 0.214041 }
}
