material : "eut2.dif.spec.rfx" {
	texture[0] : "/vehicle/trailer_eu/truck_transporter/trailer_metal.tobj"
	texture_name[0] : "texture_base"
	add_ambient : 0
	diffuse : { 1 , 1 , 1 }
	reflection : 0
	shininess : 30
	specular : { 0.416509 , 0.416509 , 0.416509 }
}
