material : "eut2.dif.spec.rfx" {
	texture[0] : "/model/railing/antinoise_walls/wooden_01.tobj"
	texture_name[0] : "texture_base"
	add_ambient : 0
	diffuse : { 1 , 1 , 1 }
	reflection : 0
	shininess : 16
	specular : { 0.0100228 , 0.0100228 , 0.0100228 }
}
