material : "eut2.dif.spec.add.env.nofresnel.rfx" {
	texture[0] : "/model/warehouse/warehouse_port_1a.tobj"
	texture_name[0] : "texture_base"
	texture[1] : "/material/environment/building_reflection/building_ref.tobj"
	texture_name[1] : "texture_reflection"
	add_ambient : 0
	diffuse : { 1 , 1 , 1 }
	env_factor : { 0.214041 , 0.214041 , 0.214041 }
	reflection : 0
	shininess : 60
	specular : { 0.318547 , 0.318547 , 0.318547 }
}
