material : "eut2.dif.spec.add.env.rfx" {
	texture[0] : "/material/tiled/metal_plates_gs_01.tobj"
	texture_name[0] : "texture_base"
	texture[1] : "/material/environment/generic_reflection.tobj"
	texture_name[1] : "texture_reflection"
	add_ambient : 0
	diffuse : { 1 , 0.681748 , 0.262251 }
	env_factor : { 0.0717034 , 0.0717034 , 0.0717034 }
	fresnel : { 0.3 , 0.9 }
	reflection : 1
	shininess : 10
	specular : { 1 , 1 , 1 }
}
