material : "eut2.dif.spec.rfx" {
	texture[0] : "/vehicle/wheel/car/duck/wheel.tobj"
	texture_name[0] : "texture_base"
	add_ambient : 0
	diffuse : { 0.999988 , 0.999988 , 0.999988 }
	reflection : 0
	shininess : 17
	specular : { 0.0180069 , 0.0180069 , 0.0180069 }
}
