material : "eut2.glass.rfx" {
	texture[0] : "/vehicle/truck/upgrade/sunshield/volvo_fh16_2009/sunshield_01.tobj"
	texture_name[0] : "texture_base"
	texture[1] : "/material/environment/vehicle_reflection.tobj"
	texture_name[1] : "texture_reflection"
	add_ambient : 0
	diffuse : { 1 , 1 , 1 }
	env_factor : { 3 , 3 , 3 }
	fresnel : { 0.2 , 0.9 }
	shininess : 95
	specular : { 0.0419134 , 0.0747332 , 0.0564035 }
	tint : { 0.563945 , 0.603827 , 0.585291 }
	tint_opacity : -0.01
}
