material : "eut2.dif.spec.add.env.rfx" {
	texture[0] : "/model/railing/tunnel/cholupice_tunel.tobj"
	texture_name[0] : "texture_base"
	texture[1] : "/material/environment/ui_vehicle_reflection.tobj"
	texture_name[1] : "texture_reflection"
	add_ambient : 0
	diffuse : { 0.522522 , 0.522522 , 0.522522 }
	env_factor : { 0.073239 , 0.073239 , 0.073239 }
	fresnel : { 0 , 0 }
	reflection : 0
	shininess : 35
	specular : { 0.890006 , 0.890006 , 0.890006 }
}
