material : "eut2.lightmap.night.rfx" {
	texture[0] : "/prefab/garage_scandinavia/garage_expensive_light_sc.tobj"
	texture_name[0] : "texture_base"
	aux[0] : 0
	diffuse : { 1 , 1 , 1 }
	shininess : 0
	specular : { 0 , 0 , 0 }
}
