material : "eut2.truckpaint.airbrush.altuv.rfx" {
	texture[0] : "/vehicle/truck/scania_rcab_2009/color.tobj"
	texture_name[0] : "texture_base"
	texture[1] : "/material/environment/vehicle_reflection.tobj"
	texture_name[1] : "texture_reflection"
	texture[2] : "/vehicle/truck/upgrade/paintjob/empty.tobj"
	texture_name[2] : "texture_paintjob"
	add_ambient : 0
	aux[8] : { 1 , 1 , 1 }
	diffuse : { 1 , 1 , 1 }
	env_factor : { 0.073239 , 0.073239 , 0.073239 }
	fresnel : { 0.2 , 0.9 }
	shininess : 250
	specular : { 1.5 , 1.5 , 1.5 }
}
