material : "eut2.dif.spec.a.rfx" {
	texture[0] : "/vehicle/ai/truck/renault_premium/color.tobj"
	texture_name[0] : "texture_base"
	add_ambient : 0
	diffuse : { 1 , 1 , 1 }
	reflection : 0
	shininess : 4
	specular : { 0.0300977 , 0.0300977 , 0.0300977 }
}
