material : "eut2.dif.spec.rfx" {
	texture[0] : "/model/sign/city_limits/city_limits_geneve_exit.tobj"
	texture_name[0] : "texture_base"
	add_ambient : 0
	diffuse : { 1 , 1 , 1 }
	reflection : 0
	shininess : 25
	specular : { 1 , 1 , 1 }
}
