material : "eut2.dif.spec.rfx" {
	texture[0] : "/vehicle/ai/truck/scania_rcab_2009/color.tobj"
	texture_name[0] : "texture_base"
	add_ambient : 1
	diffuse : { 1 , 1 , 1 }
	reflection : 0
	shininess : 24
	specular : { 1 , 1 , 1 }
}
