material : "eut2.dif.spec.add.env.rfx" {
	texture[0] : "/vehicle/truck/man_tgx/interior/plastic_black.tobj"
	texture_name[0] : "texture_base"
	texture[1] : "/vehicle/truck/daf_xf/interior/env.tobj"
	texture_name[1] : "texture_reflection"
	add_ambient : 0
	diffuse : { 0.787412 , 0.787412 , 0.787412 }
	env_factor : { 0.214041 , 0.214041 , 0.214041 }
	fresnel : { 0 , 0 }
	reflection : 0
	shininess : 64
	specular : { 0.0100228 , 0.0100228 , 0.0100228 }
}
