material : "eut2.dif.spec.rfx" {
	texture[0] : "/model/lamp/lamp_poland.tobj"
	texture_name[0] : "texture_base"
	add_ambient : 0
	diffuse : { 1 , 1 , 1 }
	reflection : 0
	shininess : 30
	specular : { 0.405668 , 0.405668 , 0.405668 }
}
