material : "eut2.dif.spec.rfx" {
	texture[0] : "/model/building/administration/glass_concrete_wall.tobj"
	texture_name[0] : "texture_base"
	add_ambient : 0
	diffuse : { 1 , 1 , 1 }
	reflection : 0
	shininess : 15
	specular : { 0.00389826 , 0.00389826 , 0.00389826 }
}
