material : "eut2.dif.spec.a.rfx" {
	texture[0] : "/prefab/quarry/house003.tobj"
	texture_name[0] : "texture_base"
	add_ambient : 0
	diffuse : { 1 , 1 , 1 }
	reflection : 0
	shininess : 32
	specular : { 0.17435 , 0.17435 , 0.17435 }
}
