material : "eut2.dif.spec.weight.weight.dif.spec.weight.tg0" {
	texture[0] : "/material/terrain/grass_ger_main.tobj"
	texture_name[0] : "texture_base"
	texture[1] : "/material/road/asphalt.tobj"
	texture_name[1] : "texture_over"
	diffuse : { 1 , 1 , 1 }
	specular : { 0.00784314 , 0.00784314 , 0.00784314 }
	shininess : 12
	add_ambient : 0
	aux[0] : { 13 , 13 }
	aux[3] : { 1.6 , 1.6 , 1.6 , 15 }
	reflection2 : 1

}
