material : "eut2.dif.spec.weight.add.env.tsnmapuv.rfx" {
	texture[0] : "/vehicle/truck/upgrade/wheel/disc/rear_disc_01_c.tobj"
	texture_name[0] : "texture_base"
	texture[1] : "/vehicle/truck/upgrade/wheel/disc/rear_disc_01_n.tobj"
	texture_name[1] : "texture_nmap"
	texture[2] : "/material/environment/vehicle_reflection.tobj"
	texture_name[2] : "texture_reflection"
	add_ambient : 0.5
	diffuse : { 1 , 1 , 1 }
	env_factor : { 1.5 , 1.5 , 1.5 }
	fresnel : { -0.1 , 1.25 }
	reflection : 0
	shininess : 15
	specular : { 1 , 1 , 1 }
}
