material : "eut2.dif.spec.add.env.nofresnel.rfx" {
	texture[0] : "/vehicle/wheel/car/generic/15in_normal/15in.tobj"
	texture_name[0] : "texture_base"
	texture[1] : "/material/environment/vehicle_reflection.tobj"
	texture_name[1] : "texture_reflection"
	add_ambient : 0
	diffuse : { 0.172271 , 0.19424 , 0.214041 }
	env_factor : { 0.0969458 , 0.0969458 , 0.0969458 }
	reflection : 0
	shininess : 150
	specular : { 1 , 1 , 1 }
}
