material : "eut2.dif.spec.weight.rfx" {
	texture[0] : "/vehicle/truck/mercedes_actros_2009/interior/plastic_004.tobj"
	texture_name[0] : "texture_base"
	add_ambient : 0
	diffuse : { 1 , 1 , 1 }
	reflection : 0
	shininess : 20
	specular : { 0.0100228 , 0.0100228 , 0.0100228 }
}
