material : "eut2.dif.spec.tsnmap.rfx" {
	texture[0] : "/vehicle/truck/daf_xf_euro6/interior/greyplastic_rough.tobj"
	texture_name[0] : "texture_base"
	texture[1] : "/vehicle/truck/daf_xf_euro6/interior/leather_orange_n.tobj"
	texture_name[1] : "texture_nmap"
	add_ambient : 0
	diffuse : { 0.53948 , 0.291771 , 0.208637 }
	reflection : 0
	shininess : 60
	specular : { 0.0805897 , 0.0805897 , 0.0805897 }
}
