material : "eut2.leaves.shadow.rfx" {
	texture[0] : "/model/vegetation/poly_vegetation/birch.tobj"
	texture_name[0] : "texture_base"
	texture[1] : "/model/vegetation/poly_vegetation/birch_mask.tobj"
	texture_name[1] : "texture_mask"
	add_ambient : 0
	aux[0] : { 1 , 0 }
	aux[1] : { 1 , 0 , 0 }
	diffuse : { 1 , 1 , 1 }
	shininess : 20
	specular : { 0.214041 , 0.214041 , 0.214041 }
	queue_bias : 2
}
