material : "eut2.dif.spec.add.env.indenv.tsnmap.rfx" {
	texture[0] : "/vehicle/truck/daf_xf_euro6/interior/greyplastic_rough.tobj"
	texture_name[0] : "texture_base"
	texture[1] : "/vehicle/truck/daf_xf_euro6/interior/leather_black_n.tobj"
	texture_name[1] : "texture_nmap"
	texture[2] : "/material/environment/interior_reflection.tobj"
	texture_name[2] : "texture_reflection"
	add_ambient : 0
	diffuse : { 0.539822 , 0.291667 , 0.208428 }
	env_factor : { 0.0908417 , 0.0908417 , 0.0908417 }
	fresnel : { -1.5 , 2 }
	reflection : 0
	shininess : 10
	specular : { 0.0906547 , 0.0906547 , 0.0906547 }
}
