material : "eut2.dif.spec.add.env.rfx" {
	texture[0] : "/vehicle/truck/daf_xf_euro6/interior/orange_sew.tobj"
	texture_name[0] : "texture_base"
	texture[1] : "/material/environment/interior_reflection.tobj"
	texture_name[1] : "texture_reflection"
	add_ambient : 0
	diffuse : { 1 , 1 , 1 }
	env_factor : { 1 , 1 , 1 }
	fresnel : { 0.2 , 0.9 }
	reflection : 0
	shininess : 4
	specular : { 0 , 0 , 0 }
}
