material : "eut2.dif.lum.over.rfx" {
	texture[0] : "/prefab/recruitment_agency/neon.tobj"
	texture_name[0] : "texture_base"
	add_ambient : 0
	diffuse : { 0 , 0 , 0 }
	reflection : 0
	shininess : 0
	specular : { 0 , 0 , 0 }
}
