material : "eut2.dif.spec.add.env.indenv.tsnmapuv.rfx" {
	texture[0] : "/vehicle/truck/volvo_fh16_2012/interior/plastic_01.tobj"
	texture_name[0] : "texture_base"
	texture[1] : "/vehicle/truck/volvo_fh16_2012/interior/details_n.tobj"
	texture_name[1] : "texture_nmap"
	texture[2] : "/material/environment/vehicle_reflection.tobj"
	texture_name[2] : "texture_reflection"
	add_ambient : 0
	diffuse : { 1 , 1 , 1 }
	env_factor : { 1 , 1 , 1 }
	fresnel : { -0.95 , 1.1 }
	reflection : 0
	shininess : 12
	specular : { 0.0130962 , 0.0130962 , 0.0130962 }
}
