material : "eut2.dif.spec.rfx" {
	texture[0] : "/model/bridge/2_railway_bridge_pilar.tobj"
	texture_name[0] : "texture_base"
	add_ambient : 0
	diffuse : { 1 , 1 , 1 }
	reflection : 0
	shininess : 15
	specular : { 1 , 1 , 1 }
}
