material : "eut2.dif.spec.rfx" {
	texture[0] : "/prefab/bridge/bridge_podebrady_landmark.tobj"
	texture_name[0] : "texture_base"
	add_ambient : 0
	diffuse : { 1 , 1 , 1 }
	reflection : 0
	shininess : 35
	specular : { 0.318547 , 0.318547 , 0.318547 }
}
