material : "eut2.dif.spec.shadow.a.rfx" {
	texture[0] : "/vehicle/truck/scania_rcab_2009/color.tobj"
	texture_name[0] : "texture_base"
	add_ambient : 0
	diffuse : { 1 , 1 , 1 }
	reflection : 0
	shadow_bias : 0
	shininess : 50
	specular : { 0.889122 , 0.889122 , 0.889122 }
}
