material : "eut2.dif.spec.weight.add.env.tsnmapuv.rfx" {
	texture[0] : "/vehicle/truck/upgrade/wheel/hub/front_hub_01_c.tobj"
	texture_name[0] : "texture_base"
	texture[1] : "/vehicle/truck/upgrade/wheel/hub/front_hub_01_n.tobj"
	texture_name[1] : "texture_nmap"
	texture[2] : "/material/environment/vehicle_reflection.tobj"
	texture_name[2] : "texture_reflection"
	add_ambient : -0.25
	diffuse : { 0.0196066 , 0.0196066 , 0.0196066 }
	env_factor : { 0.890006 , 0.956809 , 1 }
	fresnel : { 0 , 1 }
	reflection : 0
	shininess : 50
	specular : { 0.890006 , 0.956809 , 1 }
}
